%YAML 1.1
%TAG !u! tag:unity3d.com,2011:
--- !u!1 &7606711462536713602
GameObject:
  m_ObjectHideFlags: 0
  m_CorrespondingSourceObject: {fileID: 0}
  m_PrefabInstance: {fileID: 0}
  m_PrefabAsset: {fileID: 0}
  serializedVersion: 6
  m_Component:
  - component: {fileID: 7606711462536713613}
  - component: {fileID: 7606711462536713612}
  m_Layer: 0
  m_Name: SceneHandler
  m_TagString: Untagged
  m_Icon: {fileID: 0}
  m_NavMeshLayer: 0
  m_StaticEditorFlags: 0
  m_IsActive: 1
--- !u!4 &7606711462536713613
Transform:
  m_ObjectHideFlags: 0
  m_CorrespondingSourceObject: {fileID: 0}
  m_PrefabInstance: {fileID: 0}
  m_PrefabAsset: {fileID: 0}
  m_GameObject: {fileID: 7606711462536713602}
  m_LocalRotation: {x: 0, y: 0, z: 0, w: 1}
  m_LocalPosition: {x: 8.737822, y: 0.95225376, z: 0}
  m_LocalScale: {x: 1, y: 1, z: 1}
  m_Children: []
  m_Father: {fileID: 0}
  m_RootOrder: 0
  m_LocalEulerAnglesHint: {x: 0, y: 0, z: 0}
--- !u!114 &7606711462536713612
MonoBehaviour:
  m_ObjectHideFlags: 0
  m_CorrespondingSourceObject: {fileID: 0}
  m_PrefabInstance: {fileID: 0}
  m_PrefabAsset: {fileID: 0}
  m_GameObject: {fileID: 7606711462536713602}
  m_Enabled: 1
  m_EditorHideFlags: 0
  m_Script: {fileID: 11500000, guid: decc387ff8b6cae49b518ee21982c13a, type: 3}
  m_Name: 
  m_EditorClassIdentifier: 
  sceneMainMenu:
    sceneAsset: {fileID: 102900000, guid: 2cda990e2423bbf4892e6590ba056729, type: 3}
    scenePath: Assets/Game/Scenes/MainMenu.unity
    sceneBuildIndex: 0
    sceneName: MainMenu
  sceneGame:
    sceneAsset: {fileID: 102900000, guid: 0805e681aa6552743820f3672ddcebcb, type: 3}
    scenePath: Assets/Game/Scenes/Game.unity
    sceneBuildIndex: 1
    sceneName: Game
